[api-updater (non-obsolete-error-filter)] 10/5/2021 11:18:34 AM : Starting /Applications/Unity/Hub/Editor/2020.3.17f1/Unity.app/Contents/Tools/ScriptUpdater/APIUpdater.NonObsoleteApiUpdaterDetector.exe
[api-updater (non-obsolete-error-filter)] 
----------------------------------
jit/startup time      : 132.103ms
moved types parse time: 56ms
candidates parse time : 1ms
C# parse time         : 264ms
candidates check time : 28ms
console write time    : 0ms

[api-updater (non-obsolete-error-filter)] 10/5/2021 1:06:28 PM : Starting /Applications/Unity/Hub/Editor/2020.3.17f1/Unity.app/Contents/Tools/ScriptUpdater/APIUpdater.NonObsoleteApiUpdaterDetector.exe
[api-updater (non-obsolete-error-filter)] 
----------------------------------
jit/startup time      : 122.883ms
moved types parse time: 62ms
candidates parse time : 1ms
C# parse time         : 270ms
candidates check time : 29ms
console write time    : 1ms

[api-updater (non-obsolete-error-filter)] 10/5/2021 1:07:44 PM : Starting /Applications/Unity/Hub/Editor/2020.3.17f1/Unity.app/Contents/Tools/ScriptUpdater/APIUpdater.NonObsoleteApiUpdaterDetector.exe
[api-updater (non-obsolete-error-filter)] 
----------------------------------
jit/startup time      : 41.082ms
moved types parse time: 41ms
candidates parse time : 0ms
C# parse time         : 188ms
candidates check time : 27ms
console write time    : 0ms

